age	gender	Victoria	New South Wales	Australian Capital Territory	South Australia	Western Australia	Tasmania	Queensland	Northern Territory	Australia
0-4	Males	160130	221600	10630	45540	66850	15550	135120	8980	664460.0
0-4	Females	152450	209930	10150	43470	62920	14570	127900	8580	630080.0
0-4	Persons	312580	431530	20780	89000	129770	30120	263020	17560	1294540.0
5-9	Males	163090	223520	10360	48200	69890	16410	138540	8780	678900.0
5-9	Females	154280	213150	10230	46430	65540	15580	131940	8160	645410.0
5-9	Persons	317380	436670	20590	94630	135430	31990	270480	16940	1324310.0
10-14	Males	170510	231030	10980	51670	73960	17610	145940	8600	710390.0
15-19	Males	175470	231020	12640	53150	75340	17350	141550	8030	714620.0
15-19	Females	166880	219890	11870	50180	70360	16410	135110	7330	678070.0
15-19	Persons	342350	450900	24510	103330	145700	33760	276650	15360	1392680.0
20-24	Males	183890	235750	15240	54550	76820	15560	145840	8680	736420.0
20-24	Females	178580	229420	14460	52390	71420	15390	142100	8190	712020.0
20-24	Persons	362470	465170	29700	106940	148250	30950	287930	16870	1448440.0
25-29	Males	176460	230340	13600	48670	70040	13380	134870	8770	696210.0
25-29	Females	173540	229480	13660	46770	66780	13760	132560	8760	685380.0
25-29	Persons	349990	459820	27260	95440	136820	27140	267440	17530	1381590.0
30-34	Males	184470	244270	13170	51110	73730	14700	143270	9120	733920.0
30-34	Females	187630	248390	13180	50380	71900	15440	144380	8860	740230.0
30-34	Persons	372100	492650	26350	101490	145630	30150	287650	17980	1474140.0
35-39	Males	189960	242150	12710	55440	78300	16380	145950	8960	749950.0
35-39	Females	194430	246770	12790	54790	76100	17050	148320	8520	758880.0
35-39	Persons	384390	488920	25500	110240	154400	33430	294270	17480	1508830.0
40-44	Males	185590	247700	12150	56910	78420	17360	146160	8550	752970.0
40-44	Females	189720	250180	12680	57380	77530	17920	150220	7750	763480.0
40-44	Persons	375320	497880	24830	114290	155950	35280	296380	16290	1516440.0
45-49	Males	178930	239770	11800	56770	76170	18090	142100	7860	731590.0
45-49	Females	183270	244870	12670	58000	75800	18750	145360	7330	746140.0
45-49	Persons	362190	484640	24470	114770	151960	36840	287470	15200	1477730.0
50-54	Males	163070	217830	10940	52500	70330	17130	131310	6950	670160.0
50-54	Females	165980	220960	11670	53890	69660	17380	131640	6420	677670.0
50-54	Persons	329050	438790	22610	106380	139990	34510	262950	13370	1347840.0
55-59	Males	150500	204580	10190	49920	65250	16500	125770	6080	628890.0
55-59	Females	155050	204410	10540	51500	62490	16620	123510	4930	629100.0
55-59	Persons	305540	408990	20730	101420	127750	33120	249270	11010	1257990.0
60-64	Males	118280	161990	7050	38840	48510	13180	98970	4010	490910.0
60-64	Females	119820	162080	7220	40370	46000	13170	96110	3120	487930.0
60-64	Persons	238090	324070	14280	79210	94510	26350	195090	7130	978840.0
65-69	Males	94060	127400	4890	30620	37190	10390	74980	2480	382040.0
65-69	Females	98050	131980	5200	32930	36900	10670	73480	1860	391090.0
65-69	Persons	192100	259370	10090	63550	74090	21060	148460	4330	773120.0
70-74	Males	75520	102200	3590	25320	28060	8100	56270	1260	300340.0
70-74	Females	83270	111350	4020	27960	29670	8690	57730	1100	323790.0
70-74	Persons	158790	213550	7610	53280	57730	16790	114000	2360	624130.0
75+	Males	132770	177910	5870	47230	45720	13540	93210	1400	517670.0
75+	Females	194050	261050	8430	70480	64130	20060	129350	1590	749140.0
75+	Persons	326820	438960	14310	117710	109850	33590	222560	2990	1266810.0
All ages	Males	2502690	3339040	165810	766430	1034570	241230	1999860	108500	10159420.0
All ages	Females	2558580	3403660	169360	786100	1016010	248080	2008130	100560	10291540.0
All ages	Persons	5061270	6742690	335170	1552530	2050580	489300	4007990	209060	20450970.0
10-14	Females	161600	219760	10590	49190	68810	16610	138440	8060	673160.0
10-14	Persons	332110	450790	21570	100860	142770	34220	284380	16660	1383540.0
